Project 1 FInal RCode Full Analysis
…
## # A tibble: 1 x 10
##   Beer_Name       Beer_ID   ABV   IBU Brewery_id Style     Ounces Brewery_Name                    City      State
##   <chr>             <dbl> <dbl> <dbl>      <dbl> <chr>      <dbl> <chr>                           <chr>     <chr>
## 1 Summer Solstice    1350 0.056     4        172 Cream Ale     12 Anderson Valley Brewing Company Boonville CA

# Using the original/unfiltered data set we search for the highest ABV value 
# recorded and check it's brewery/state 
MaxIBU = which.max(BB_IBU$IBU)
BB_IBU

## # A tibble: 1,403 x 10
##    Beer_Name                                   Beer_ID   ABV   IBU Brewery_id Style    Ounces Brewery_Name   City   State
##    <chr>                                         <dbl> <dbl> <dbl>      <dbl> <chr>     <dbl> <chr>          <chr>  <chr>
##  1 Bitter Bitch                                   1979 0.061    60        178 America~   12   18th Street B~ Gary   IN   
##  2 Lower De Boom                                  1036 0.099    92        369 America~    8.4 21st Amendmen~ San F~ CA   
##  3 Fireside Chat                                  1024 0.079    45        369 Winter ~   12   21st Amendmen~ San F~ CA   
##  4 Bitter American                                 876 0.044    42        369 America~   12   21st Amendmen~ San F~ CA   
##  5 Hell or High Watermelon Wheat (2009)            802 0.049    17        369 Fruit /~   12   21st Amendmen~ San F~ CA   
##  6 Hell or High Watermelon Wheat (2009)            801 0.049    17        369 Fruit /~   12   21st Amendmen~ San F~ CA   
##  7 21st Amendment Watermelon Wheat Beer (2006)     800 0.049    17        369 Fruit /~   12   21st Amendmen~ San F~ CA   
##  8 21st Amendment IPA (2006)                       799 0.07     70        369 America~   12   21st Amendmen~ San F~ CA   
##  9 Brew Free! or Die IPA (2008)                    797 0.07     70        369 America~   12   21st Amendmen~ San F~ CA   
## 10 Brew Free! or Die IPA (2009)                    796 0.07     70        369 America~   12   21st Amendmen~ San F~ CA   
## # ... with 1,393 more rows
…
